{
    "infoTitles": [
    {
       "title": "טמפ' נמדדת",
       "weatherObjectDesc": "temp"
    },
    {
        "title": "טמפ' מורגשת",
        "weatherObjectDesc": "feels_like"
     },
     {
        "title": "לחות",
        "weatherObjectDesc": "humidity"
     }
]
}